<?xml version="1.0" encoding="utf-8"?>
<!-- Generator: Adobe Illustrator 15.1.0, SVG Export Plug-In . SVG Version: 6.00 Build 0)  -->
<!DOCTYPE svg PUBLIC "-//W3C//DTD SVG 1.1//EN" "http://www.w3.org/Graphics/SVG/1.1/DTD/svg11.dtd">
<svg version="1.1" id="Layer_1" xmlns="http://www.w3.org/2000/svg" xmlns:xlink="http://www.w3.org/1999/xlink" x="0px" y="0px"
	 width="283.46px" height="198.43px" viewBox="0 0 283.46 198.43" enable-background="new 0 0 283.46 198.43" xml:space="preserve">
<g>
	<path d="M167.25,1c-1.574,0-2.856,1.264-2.856,2.819v15.222h-49.131V3.819c0-1.555-1.281-2.819-2.857-2.819
		c-1.574,0-2.856,1.264-2.856,2.819V21.86v18.039c0,1.554,1.282,2.819,2.856,2.819h6.285v15.22v9.021
		c0,0.753,0.297,1.46,0.836,1.993l9.14,9.02c0.54,0.533,1.258,0.826,2.02,0.826h1.714v6.201c0,1.554,1.282,2.819,2.857,2.819h9.142
		c1.573,0,2.855-1.266,2.855-2.819v-6.201h1.713c0.765,0,1.48-0.293,2.021-0.826l9.141-9.02c0.54-0.533,0.837-1.24,0.837-1.993
		v-9.021v-15.22h6.283c1.576,0,2.856-1.266,2.856-2.819V21.86V3.819C170.106,2.264,168.826,1,167.25,1z M141.542,82.181h-3.427
		v-3.382h3.427V82.181z M124.403,57.938v-15.22h5.713v28.711l-5.713-5.637V57.938z M135.83,72.822V42.718h7.999V71.71
		c0,0.513,0.066,0.996,0.17,1.451h-8.189C135.813,73.047,135.83,72.938,135.83,72.822z M155.253,65.792l-5.713,5.637V42.718h5.713
		v15.22V65.792z M164.394,37.08h-49.131V24.678h49.131V37.08z"/>
	<g>
		<path d="M15.421,127.702v12.465c1.962-0.451,4.645-1.099,7.851-1.099c9.357,0,13.609,4.778,13.609,12.979v8.715
			c0,8.845-4.777,13.69-14.787,13.69c-5.3,0-9.553-1.099-11.844-2.067c-2.094-0.97-2.42-1.485-2.42-3.551v-41.132
			c0-1.481,0.523-1.998,2.028-1.998h3.599C14.962,125.704,15.421,126.221,15.421,127.702z M22.16,145.912
			c-2.748,0-5.169,0.643-6.739,1.163v19.048c0,0.32,0.065,0.514,0.522,0.71c1.505,0.518,3.468,0.774,5.627,0.774
			c5.235,0,7.721-2.26,7.721-7.037v-8.332C29.292,148.173,26.806,145.912,22.16,145.912z"/>
		<path d="M51.656,131.386v0.582c0,2.97-0.981,3.937-3.991,3.937h-0.459c-3.009,0-3.99-0.967-3.99-3.937v-0.582
			c0-2.971,0.981-3.875,3.99-3.875h0.459C50.675,127.511,51.656,128.415,51.656,131.386z M51.264,141.976v29.508
			c0,1.481-0.524,1.999-2.029,1.999h-3.598c-1.505,0-1.962-0.518-1.962-1.999v-29.508c0-1.486,0.458-1.94,1.962-1.94h3.598
			C50.74,140.035,51.264,140.489,51.264,141.976z"/>
		<path d="M73.037,139.068c10.404,0,15.116,5.941,15.116,13.364v3.938c0,1.681-0.655,2.778-2.945,2.778h-19.76v2.39
			c0,4.194,2.682,6.457,7.459,6.457c3.86,0,6.346-1.291,7.721-3.424c1.046-1.422,1.767-1.616,3.337-0.773l2.291,1.226
			c1.505,0.709,1.7,1.809,0.784,3.228c-2.355,3.811-6.739,6.2-14.132,6.2c-10.731,0-15.049-5.876-15.049-13.819v-7.618
			C57.858,144.041,63.157,139.068,73.037,139.068z M73.037,145.395c-4.907,0-7.589,2.389-7.589,6.588v1.42h15.114v-1.42
			C80.562,147.783,78.01,145.395,73.037,145.395z"/>
		<path d="M109.731,139.068c9.292,0,13.609,4.778,13.609,12.979v19.437c0,1.481-0.523,1.999-2.028,1.999h-3.599
			c-1.504,0-1.963-0.518-1.963-1.999v-19.245c0-4.259-2.355-6.326-7.132-6.326c-2.552,0-4.58,0.39-6.281,0.841
			c-0.328,0.128-0.458,0.386-0.458,0.645v24.086c0,1.481-0.459,1.999-1.963,1.999h-3.599c-1.505,0-2.029-0.518-2.029-1.999v-26.538
			c0-2.068,0.458-2.843,2.552-3.685C99.459,140.231,103.45,139.068,109.731,139.068z"/>
		<path d="M144.92,139.068c7.786,0,12.367,3.617,14.003,8.458c0.522,1.614,0.064,2.324-1.439,2.906l-2.879,0.901
			c-1.569,0.648-2.289,0.196-2.879-1.354c-1.046-2.71-3.272-4.326-7.132-4.326c-4.712,0-7.133,2.263-7.133,6.329v9.557
			c0,4.003,2.421,6.324,7.133,6.324c3.795,0,6.086-1.677,7.132-4.453c0.59-1.551,1.31-1.808,2.879-1.291l2.942,0.837
			c1.508,0.582,2.029,1.293,1.376,2.908c-2.159,5.486-6.674,8.588-14.591,8.588c-9.945,0-14.46-5.039-14.46-13.237v-8.909
			C129.872,144.104,134.648,139.068,144.92,139.068z"/>
		<path d="M182.136,139.068c1.507,0,2.029,0.451,2.029,2.001v2.841c0,1.484-0.522,2.002-2.029,2.002h-2.354
			c-2.553,0-4.515,0.26-6.216,0.776c-0.589,0.128-0.654,0.45-0.654,0.774v24.021c0,1.481-0.459,1.999-1.964,1.999h-3.599
			c-1.505,0-2.027-0.518-2.027-1.999v-26.799c0-2.064,0.458-2.84,2.551-3.68c2.422-0.904,6.347-1.808,12.17-1.937H182.136z"/>
		<path d="M202.381,139.068c10.731,0,14.002,5.681,14.002,13.301v16.724c0,2.258-0.523,2.904-2.355,3.681
			c-2.421,1.034-6.411,1.679-11.776,1.679c-11.583,0-14.593-3.747-14.593-10.461c0-7.746,4.383-10.396,14.854-10.396
			c2.551,0,5.169,0.26,6.28,0.323v-1.809c0-4.067-1.635-6.393-6.541-6.393c-3.272,0-5.498,1.035-6.872,3.1
			c-0.915,1.358-1.309,1.55-2.813,0.969l-2.617-1.099c-1.438-0.645-1.896-1.418-1.112-2.904
			C191.061,141.587,195.575,139.068,202.381,139.068z M201.662,159.73c-4.974,0-6.283,1.548-6.283,4.195
			c0,2.646,1.047,4.326,6.151,4.326c3.337,0,5.365-0.256,6.543-0.517c0.523-0.192,0.719-0.322,0.719-0.902v-6.781
			C207.419,159.986,204.213,159.73,201.662,159.73z"/>
		<path d="M243.524,127.771v2.839c0,1.551-0.522,2.068-2.094,2.068c-5.496,0-7.394,1.87-7.394,6.713v0.645h7.525
			c1.504,0,1.962,0.454,1.962,1.94v2.97c0,1.482-0.458,1.999-1.962,1.999h-7.525v24.539c0,1.481-0.459,1.999-2.028,1.999h-3.468
			c-1.571,0-2.095-0.518-2.095-1.999v-24.539h-3.925c-1.506,0-1.963-0.517-1.963-1.999v-2.97c0-1.486,0.457-1.94,1.963-1.94h3.925
			v-0.645c0-8.909,4.515-13.495,14.396-13.687h0.589C243.002,125.704,243.524,126.221,243.524,127.771z"/>
		<path d="M262.34,134.228v5.808h7.459c1.505,0,2.026,0.454,2.026,1.94v2.97c0,1.482-0.521,1.999-2.026,1.999h-7.459v12.979
			c0,6.328,1.896,7.427,7.393,7.427c1.571,0,2.093,0.448,2.093,2.001v2.969c0,1.551-0.521,2-2.093,2.066
			c-10.796,0.323-14.982-3.036-14.982-14.206v-13.236h-4.515c-1.506,0-1.964-0.517-1.964-1.999v-2.97c0-1.486,0.458-1.94,1.964-1.94
			h4.515v-5.808c0-1.486,0.521-1.939,2.027-1.939h3.533C261.815,132.288,262.34,132.741,262.34,134.228z"/>
	</g>
	<g>
		<path fill="#D25045" d="M136.43,102.451c0-1.845,1.528-3.354,3.398-3.354l0,0c1.868,0,3.398,1.509,3.398,3.354l0,0
			c0,1.843-1.53,3.353-3.398,3.353l0,0C137.958,105.804,136.43,104.294,136.43,102.451z"/>
		<path fill="#D25045" d="M136.43,93.674c0-1.844,1.528-3.353,3.398-3.353l0,0c1.868,0,3.398,1.509,3.398,3.353l0,0
			c0,1.844-1.53,3.354-3.398,3.354l0,0C137.958,97.028,136.43,95.519,136.43,93.674z"/>
		<g>
			<path fill="#D25045" d="M139.829,114.561c-0.884,0-1.767-0.371-2.413-0.974c-0.612-0.637-0.986-1.509-0.986-2.38
				c0-0.874,0.374-1.744,0.986-2.381c1.291-1.241,3.533-1.241,4.826,0c0.61,0.637,0.985,1.507,0.985,2.381
				c0,0.871-0.375,1.743-0.985,2.38C141.594,114.189,140.712,114.561,139.829,114.561z"/>
		</g>
	</g>
	<g>
		<path fill="#D25045" d="M210.67,122.736h-53.04l29.176-11.516c1.755-0.695,2.611-2.669,1.909-4.399
			c-0.525-1.292-1.775-2.124-3.186-2.124c-0.434,0-0.859,0.08-1.265,0.238l-30.204,11.92l6.473-6.386
			c0.648-0.639,1.005-1.489,1.005-2.393s-0.356-1.752-1.005-2.391c-0.647-0.639-1.509-0.99-2.424-0.99s-1.776,0.352-2.424,0.99
			l-15.857,15.648l-15.858-15.648c-0.647-0.639-1.507-0.99-2.424-0.99c-0.915,0-1.775,0.352-2.423,0.99
			c-0.648,0.639-1.004,1.487-1.004,2.391s0.356,1.754,1.004,2.393l6.472,6.386l-30.197-11.918c-0.411-0.161-0.839-0.241-1.274-0.241
			c-1.409,0-2.658,0.833-3.183,2.125c-0.701,1.73,0.155,3.704,1.909,4.398l29.177,11.517h-53.04c-1.89,0-3.428,1.517-3.428,3.382
			s1.538,3.382,3.428,3.382H210.67c1.89,0,3.428-1.517,3.428-3.382S212.56,122.736,210.67,122.736z"/>
		<path fill="#D25045" d="M167.25,102.439c0.916,0,1.777-0.351,2.425-0.989l9.14-9.021c0.648-0.639,1.006-1.488,1.006-2.392
			c0-0.903-0.357-1.753-1.006-2.391c-0.646-0.64-1.508-0.991-2.423-0.991c-0.916,0-1.776,0.351-2.425,0.991l-9.14,9.019
			c-0.646,0.64-1.004,1.489-1.004,2.392c0,0.903,0.357,1.754,1.004,2.393C165.475,102.089,166.335,102.439,167.25,102.439z"/>
		<path fill="#D25045" d="M109.983,101.45c0.647,0.639,1.508,0.989,2.423,0.989c0.917,0,1.776-0.351,2.424-0.989
			c0.647-0.639,1.004-1.489,1.004-2.393c0-0.903-0.356-1.752-1.004-2.392l-9.141-9.019c-0.647-0.64-1.508-0.991-2.423-0.991
			c-0.916,0-1.776,0.351-2.423,0.991c-0.648,0.638-1.004,1.488-1.004,2.391c0,0.904,0.356,1.753,1.004,2.392L109.983,101.45z"/>
		<path fill="#D25045" d="M216.139,94.795c-0.527-1.293-1.776-2.126-3.186-2.126c-0.436,0-0.862,0.082-1.27,0.24l-18.283,7.217
			c-1.755,0.694-2.611,2.668-1.911,4.398c0.526,1.292,1.776,2.127,3.185,2.127c0.432,0,0.86-0.08,1.269-0.241l18.285-7.217
			C215.982,98.498,216.84,96.526,216.139,94.795z"/>
		<path fill="#D25045" d="M84.983,106.651c1.409,0,2.658-0.835,3.184-2.126c0.701-1.731-0.155-3.705-1.909-4.399l-18.282-7.215
			c-0.41-0.162-0.839-0.244-1.275-0.244c-1.408,0-2.656,0.836-3.181,2.128c-0.701,1.731,0.155,3.704,1.908,4.399l18.282,7.215
			C84.124,106.571,84.55,106.651,84.983,106.651z"/>
	</g>
	<g>
		<path fill="#D25045" d="M15.535,186.413h-1.945l-0.114,4.377c-0.064,2.713-1.377,4.135-3.645,4.135H9.068
			c-0.325,0-0.486-0.244-0.486-0.534v-1.317c0-0.247,0.13-0.538,0.437-0.538c0.829,0,1.573-0.506,1.605-1.683l0.163-6.371
			c0-0.264,0.193-0.461,0.567-0.461h6.449c0.373,0,0.568,0.197,0.568,0.461v9.984c0,0.26-0.243,0.459-0.552,0.459H16.1
			c-0.307,0-0.565-0.199-0.565-0.459V186.413h-1.945H15.535z"/>
		<path fill="#D25045" d="M30.124,194.635c0,0.215-0.179,0.29-0.471,0.29h-1.815c-0.47,0-0.583-0.154-0.681-0.459l-0.388-1.161
			h-3.547l-0.406,1.161c-0.098,0.29-0.211,0.459-0.681,0.459h-1.816c-0.29,0-0.468-0.075-0.468-0.29
			c0-0.062,0.015-0.154,0.047-0.244l3.874-10.048c0.115-0.275,0.292-0.322,0.584-0.322h1.247c0.325,0,0.487,0.047,0.617,0.386
			l3.856,9.984C30.107,194.48,30.124,194.573,30.124,194.635z M25.05,188.158l-1.036,2.906h2.01L25.05,188.158z"/>
		<path fill="#D25045" d="M35.07,195.019c-1.75,0-3.24-0.293-4.568-1.442l1.814-1.711c0.664,0.536,1.735,0.764,2.608,0.764
			c0.729,0,1.41-0.383,1.41-1.012c0-0.689-0.601-1.179-1.393-1.179h-1.524v-2.177h1.524c0.776,0,1.265-0.397,1.265-1.04
			c0-0.598-0.665-0.953-1.282-0.953c-0.811,0-1.636,0.145-2.235,0.645l-1.782-1.684c1.133-0.965,2.625-1.302,4.164-1.302
			c2.155,0,3.955,1.209,3.955,3.096c0,0.979-0.6,1.806-1.394,2.264c0.908,0.427,1.555,1.289,1.555,2.389
			C39.186,193.699,37.387,195.019,35.07,195.019z"/>
		<path fill="#D25045" d="M48.656,194.925h-6.791c-0.292,0-0.565-0.199-0.565-0.459v-9.984c0-0.264,0.306-0.461,0.565-0.461h6.791
			c0.324,0,0.486,0.244,0.486,0.535v1.318c0,0.245-0.147,0.539-0.486,0.539h-4.521v1.82h3.792c0.339,0,0.484,0.229,0.484,0.535
			v1.318c0,0.258-0.162,0.532-0.484,0.532h-3.792v1.916h4.521c0.309,0,0.486,0.275,0.486,0.538v1.317
			C49.143,194.681,48.965,194.925,48.656,194.925z"/>
		<path fill="#D25045" d="M55.873,191.037H54.14v3.429c0,0.26-0.259,0.459-0.568,0.459h-1.701c-0.307,0-0.568-0.199-0.568-0.459
			v-9.984c0-0.264,0.196-0.461,0.568-0.461h4.002c2.285,0,3.938,1.472,3.938,3.508C59.811,189.566,58.173,191.037,55.873,191.037z
			 M55.744,186.425H54.14v2.203h1.604c0.712,0,1.229-0.47,1.229-1.1C56.974,186.899,56.457,186.425,55.744,186.425z"/>
		<path fill="#D25045" d="M63.884,194.925h-1.701c-0.308,0-0.566-0.199-0.566-0.459v-9.984c0-0.264,0.193-0.461,0.566-0.461h1.701
			c0.373,0,0.567,0.197,0.567,0.461v3.736h3.015v-3.736c0-0.264,0.193-0.461,0.566-0.461h1.7c0.373,0,0.568,0.197,0.568,0.461v9.984
			c0,0.26-0.243,0.459-0.551,0.459h-1.717c-0.308,0-0.566-0.199-0.566-0.459v-3.86h-3.015v3.86
			C64.451,194.726,64.192,194.925,63.884,194.925z"/>
		<path fill="#D25045" d="M82.052,194.635c0,0.215-0.177,0.29-0.469,0.29h-1.815c-0.469,0-0.583-0.154-0.681-0.459l-0.388-1.161
			H75.15l-0.405,1.161c-0.099,0.29-0.21,0.459-0.681,0.459h-1.815c-0.292,0-0.468-0.075-0.468-0.29c0-0.062,0.016-0.154,0.048-0.244
			l3.872-10.048c0.115-0.275,0.292-0.322,0.583-0.322h1.247c0.327,0,0.487,0.047,0.616,0.386l3.857,9.984
			C82.037,194.48,82.052,194.573,82.052,194.635z M76.98,188.158l-1.037,2.906h2.011L76.98,188.158z"/>
		<path fill="#D25045" d="M91.149,194.925h-1.718c-0.308,0-0.568-0.199-0.568-0.459v-3.429h-1.15l-1.474,3.429
			c-0.13,0.29-0.292,0.459-0.761,0.459h-2.107c-0.293,0-0.52-0.093-0.52-0.29c0-0.062,0.049-0.14,0.099-0.244l1.928-3.923
			c-1.054-0.61-1.687-1.67-1.687-2.939c0-2.036,1.655-3.508,3.939-3.508h4.002c0.372,0,0.566,0.197,0.566,0.461v9.984
			C91.7,194.726,91.457,194.925,91.149,194.925z M88.863,186.413h-1.636c-0.712,0-1.23,0.486-1.23,1.115c0,0.63,0.518,1.1,1.23,1.1
			h1.636V186.413z"/>
		<path fill="#D25045" d="M102.51,191.037h-1.733v3.429c0,0.26-0.259,0.459-0.567,0.459h-1.702c-0.307,0-0.566-0.199-0.566-0.459
			v-9.984c0-0.264,0.194-0.461,0.566-0.461h4.002c2.286,0,3.938,1.472,3.938,3.508C106.448,189.566,104.811,191.037,102.51,191.037z
			 M102.38,186.425h-1.604v2.203h1.604c0.712,0,1.231-0.47,1.231-1.1C103.612,186.899,103.093,186.425,102.38,186.425z"/>
		<path fill="#D25045" d="M115.61,194.925h-6.79c-0.292,0-0.567-0.199-0.567-0.459v-9.984c0-0.264,0.307-0.461,0.567-0.461h6.79
			c0.324,0,0.486,0.244,0.486,0.535v1.318c0,0.245-0.144,0.539-0.486,0.539h-4.522v1.82h3.794c0.338,0,0.484,0.229,0.484,0.535
			v1.318c0,0.258-0.16,0.532-0.484,0.532h-3.794v1.916h4.522c0.309,0,0.486,0.275,0.486,0.538v1.317
			C116.096,194.681,115.919,194.925,115.61,194.925z"/>
		<path fill="#D25045" d="M121.74,195.019c-1.747,0-3.24-0.293-4.568-1.442l1.815-1.711c0.664,0.536,1.735,0.764,2.608,0.764
			c0.731,0,1.409-0.383,1.409-1.012c0-0.689-0.596-1.179-1.394-1.179h-1.522v-2.177h1.522c0.779,0,1.265-0.397,1.265-1.04
			c0-0.598-0.665-0.953-1.281-0.953c-0.81,0-1.635,0.145-2.235,0.645l-1.783-1.684c1.134-0.965,2.626-1.302,4.163-1.302
			c2.155,0,3.955,1.209,3.955,3.096c0,0.979-0.6,1.806-1.394,2.264c0.907,0.427,1.556,1.289,1.556,2.389
			C125.856,193.699,124.06,195.019,121.74,195.019z"/>
		<path fill="#D25045" d="M137.482,194.697c0,0.228-0.293,0.228-0.455,0.228h-2.106c-0.518,0-0.681-0.259-0.795-0.459l-2.38-4.014
			l-0.972,1.057v2.957c0,0.26-0.259,0.459-0.567,0.459h-1.671c-0.308,0-0.567-0.199-0.567-0.459v-9.984
			c0-0.264,0.194-0.461,0.567-0.461h1.671c0.371,0,0.567,0.197,0.567,0.461v3.398l2.964-3.429c0.372-0.431,0.469-0.431,0.843-0.431
			h2.383c0.241,0,0.357,0.073,0.357,0.197c0,0.078-0.05,0.152-0.132,0.247l-3.547,3.967l3.712,5.931
			C137.451,194.513,137.482,194.617,137.482,194.697z"/>
		<path fill="#D25045" d="M148.294,194.635c0,0.215-0.177,0.29-0.471,0.29h-1.813c-0.47,0-0.581-0.154-0.681-0.459l-0.387-1.161
			h-3.55l-0.405,1.161c-0.1,0.29-0.212,0.459-0.68,0.459h-1.816c-0.291,0-0.468-0.075-0.468-0.29c0-0.062,0.015-0.154,0.046-0.244
			l3.874-10.048c0.114-0.275,0.29-0.322,0.584-0.322h1.249c0.322,0,0.484,0.047,0.614,0.386l3.856,9.984
			C148.277,194.48,148.294,194.573,148.294,194.635z M143.223,188.158l-1.037,2.906h2.009L143.223,188.158z"/>
		<path fill="#D25045" d="M161.957,194.925h-1.717c-0.312,0-0.552-0.199-0.552-0.459v-5.482l-3.451,5.557
			c-0.129,0.205-0.324,0.385-0.714,0.385h-1.442c-0.373,0-0.565-0.199-0.565-0.459v-9.984c0-0.264,0.259-0.461,0.565-0.461h1.703
			c0.308,0,0.566,0.197,0.566,0.461v5.481l3.466-5.557c0.13-0.203,0.324-0.386,0.715-0.386h1.426c0.374,0,0.565,0.197,0.565,0.461
			v9.984C162.522,194.726,162.265,194.925,161.957,194.925z"/>
		<path fill="#D25045" d="M171.033,194.925h-1.703c-0.307,0-0.566-0.199-0.566-0.459v-9.984c0-0.264,0.195-0.461,0.566-0.461h6.483
			c0.339,0,0.483,0.322,0.483,0.535v1.318c0,0.26-0.209,0.539-0.483,0.539h-4.215v8.053
			C171.599,194.726,171.307,194.925,171.033,194.925z"/>
		<path fill="#D25045" d="M182.497,191.037h-1.733v3.429c0,0.26-0.261,0.459-0.57,0.459h-1.701c-0.31,0-0.565-0.199-0.565-0.459
			v-9.984c0-0.264,0.192-0.461,0.565-0.461h4.005c2.281,0,3.934,1.472,3.934,3.508C186.431,189.566,184.797,191.037,182.497,191.037
			z M182.367,186.425h-1.604v2.203h1.604c0.711,0,1.227-0.47,1.227-1.1C183.594,186.899,183.078,186.425,182.367,186.425z"/>
		<path fill="#D25045" d="M196.698,194.635c0,0.215-0.18,0.29-0.471,0.29h-1.818c-0.469,0-0.581-0.154-0.679-0.459l-0.388-1.161
			h-3.549l-0.406,1.161c-0.098,0.29-0.21,0.459-0.679,0.459h-1.817c-0.289,0-0.47-0.075-0.47-0.29c0-0.062,0.016-0.154,0.047-0.244
			l3.875-10.048c0.112-0.275,0.292-0.322,0.583-0.322h1.247c0.326,0,0.489,0.047,0.618,0.386l3.856,9.984
			C196.682,194.48,196.698,194.573,196.698,194.635z M191.624,188.158l-1.038,2.906h2.012L191.624,188.158z"/>
		<path fill="#D25045" d="M203.185,194.925h-4.456c-0.312,0-0.566-0.199-0.566-0.459v-9.984c0-0.264,0.193-0.461,0.566-0.461h4.212
			c2.251,0,3.68,1.194,3.68,3.063c0,0.966-0.371,1.638-1.266,2.251c1.023,0.614,1.427,1.284,1.427,2.389
			C206.781,193.672,205.372,194.925,203.185,194.925z M202.76,186.425h-1.766v1.776h1.766c0.647,0,1.025-0.337,1.025-0.888
			S203.407,186.425,202.76,186.425z M202.908,190.605h-1.914v1.916h1.914c0.646,0,1.034-0.365,1.034-0.965
			C203.942,190.959,203.555,190.605,202.908,190.605z"/>
		<path fill="#D25045" d="M217.338,194.925h-1.722c-0.306,0-0.548-0.199-0.548-0.459v-5.482l-3.45,5.557
			c-0.132,0.205-0.323,0.385-0.717,0.385h-1.443c-0.371,0-0.565-0.199-0.565-0.459v-9.984c0-0.264,0.261-0.461,0.565-0.461h1.705
			c0.308,0,0.565,0.197,0.565,0.461v5.481l3.469-5.557c0.13-0.203,0.324-0.386,0.712-0.386h1.429c0.369,0,0.565,0.197,0.565,0.461
			v9.984C217.903,194.726,217.642,194.925,217.338,194.925z"/>
		<path fill="#D25045" d="M224.955,191.037h-1.731v3.429c0,0.26-0.262,0.459-0.568,0.459h-1.702c-0.309,0-0.565-0.199-0.565-0.459
			v-9.984c0-0.264,0.193-0.461,0.565-0.461h4.002c2.289,0,3.938,1.472,3.938,3.508C228.894,189.566,227.258,191.037,224.955,191.037
			z M224.828,186.425h-1.604v2.203h1.604c0.711,0,1.227-0.47,1.227-1.1C226.055,186.899,225.539,186.425,224.828,186.425z"/>
		<path fill="#D25045" d="M237.941,193.792c-0.824,0.825-1.893,1.227-3.206,1.227c-1.348,0-2.398-0.401-3.241-1.227
			c-1.184-1.163-1.168-2.648-1.168-4.013v-0.691c0-2.128,0.262-3.05,1.168-3.934c0.828-0.83,1.894-1.227,3.208-1.227
			c1.33,0,2.399,0.396,3.239,1.227c0.812,0.796,1.166,1.773,1.166,3.353v0.965C239.107,191.05,239.173,192.565,237.941,193.792z
			 M236.275,189.011c0-1.022-0.115-1.836-0.425-2.22c-0.256-0.305-0.665-0.474-1.132-0.474c-0.472,0-0.875,0.169-1.138,0.474
			c-0.306,0.384-0.422,1.197-0.422,2.22v0.751c0,1.396,0.116,2.009,0.422,2.378c0.263,0.306,0.682,0.489,1.138,0.489
			c0.453,0,0.876-0.184,1.132-0.489c0.31-0.369,0.425-0.981,0.425-2.378V189.011z"/>
		<path fill="#D25045" d="M246.245,194.925h-4.457c-0.304,0-0.567-0.199-0.567-0.459v-9.984c0-0.264,0.197-0.461,0.567-0.461h4.211
			c2.257,0,3.683,1.194,3.683,3.063c0,0.966-0.374,1.638-1.267,2.251c1.025,0.614,1.428,1.284,1.428,2.389
			C249.843,193.672,248.433,194.925,246.245,194.925z M245.825,186.425h-1.768v1.776h1.768c0.649,0,1.018-0.337,1.018-0.888
			S246.475,186.425,245.825,186.425z M245.969,190.605h-1.911v1.916h1.911c0.649,0,1.039-0.365,1.039-0.965
			C247.008,190.959,246.618,190.605,245.969,190.605z"/>
		<path fill="#D25045" d="M261.469,194.697c0,0.228-0.292,0.228-0.457,0.228h-2.104c-0.521,0-0.682-0.259-0.794-0.459l-2.381-4.014
			l-0.976,1.057v2.957c0,0.26-0.26,0.459-0.563,0.459h-1.674c-0.308,0-0.564-0.199-0.564-0.459v-9.984
			c0-0.264,0.192-0.461,0.564-0.461h1.674c0.369,0,0.563,0.197,0.563,0.461v3.398l2.969-3.429c0.37-0.431,0.467-0.431,0.842-0.431
			h2.381c0.243,0,0.354,0.073,0.354,0.197c0,0.078-0.049,0.152-0.126,0.247l-3.551,3.967l3.711,5.931
			C261.435,194.513,261.469,194.617,261.469,194.697z"/>
		<path fill="#D25045" d="M272.278,194.635c0,0.215-0.178,0.29-0.47,0.29h-1.815c-0.47,0-0.583-0.154-0.682-0.459l-0.388-1.161
			h-3.549l-0.408,1.161c-0.096,0.29-0.208,0.459-0.679,0.459h-1.811c-0.293,0-0.471-0.075-0.471-0.29
			c0-0.062,0.016-0.154,0.047-0.244l3.874-10.048c0.116-0.275,0.293-0.322,0.581-0.322h1.249c0.326,0,0.485,0.047,0.616,0.386
			l3.857,9.984C272.263,194.48,272.278,194.573,272.278,194.635z M267.207,188.158l-1.035,2.906h2.008L267.207,188.158z"/>
	</g>
</g>
</svg>
